%YAML 1.1
%TAG !u! tag:unity3d.com,2011:
--- !u!1001 &6788884816160497528
PrefabInstance:
  m_ObjectHideFlags: 0
  serializedVersion: 2
  m_Modification:
    m_TransformParent: {fileID: 0}
    m_Modifications:
    - target: {fileID: 345526336882523552, guid: d2c85fe3b13f34546866a83897963fa9, type: 3}
      propertyPath: m_Size.y
      value: 0
      objectReference: {fileID: 0}
    - target: {fileID: 3684056842502909653, guid: d2c85fe3b13f34546866a83897963fa9, type: 3}
      propertyPath: m_Materials.Array.data[0]
      value: 
      objectReference: {fileID: 2100000, guid: 9bf82d1fe88301c478caf8b9f554602b, type: 2}
    - target: {fileID: 5652782108259933424, guid: d2c85fe3b13f34546866a83897963fa9, type: 3}
      propertyPath: m_LocalRotation.w
      value: 0.7071068
      objectReference: {fileID: 0}
    - target: {fileID: 5652782108259933424, guid: d2c85fe3b13f34546866a83897963fa9, type: 3}
      propertyPath: m_LocalRotation.x
      value: 0.7071068
      objectReference: {fileID: 0}
    - target: {fileID: 5652782108259933424, guid: d2c85fe3b13f34546866a83897963fa9, type: 3}
      propertyPath: m_LocalRotation.y
      value: 0
      objectReference: {fileID: 0}
    - target: {fileID: 5652782108259933424, guid: d2c85fe3b13f34546866a83897963fa9, type: 3}
      propertyPath: m_LocalRotation.z
      value: 0
      objectReference: {fileID: 0}
    - target: {fileID: 5652782108259933424, guid: d2c85fe3b13f34546866a83897963fa9, type: 3}
      propertyPath: m_LocalEulerAnglesHint.y
      value: 0
      objectReference: {fileID: 0}
    - target: {fileID: 6766188509737697118, guid: d2c85fe3b13f34546866a83897963fa9, type: 3}
      propertyPath: m_Name
      value: Portal B Variant
      objectReference: {fileID: 0}
    - target: {fileID: 7192333749248133278, guid: d2c85fe3b13f34546866a83897963fa9, type: 3}
      propertyPath: m_RootOrder
      value: 0
      objectReference: {fileID: 0}
    - target: {fileID: 7192333749248133278, guid: d2c85fe3b13f34546866a83897963fa9, type: 3}
      propertyPath: m_LocalPosition.x
      value: -130
      objectReference: {fileID: 0}
    - target: {fileID: 7192333749248133278, guid: d2c85fe3b13f34546866a83897963fa9, type: 3}
      propertyPath: m_LocalPosition.y
      value: 2.5
      objectReference: {fileID: 0}
    - target: {fileID: 7192333749248133278, guid: d2c85fe3b13f34546866a83897963fa9, type: 3}
      propertyPath: m_LocalPosition.z
      value: 11.5
      objectReference: {fileID: 0}
    - target: {fileID: 7192333749248133278, guid: d2c85fe3b13f34546866a83897963fa9, type: 3}
      propertyPath: m_LocalRotation.w
      value: 0
      objectReference: {fileID: 0}
    - target: {fileID: 7192333749248133278, guid: d2c85fe3b13f34546866a83897963fa9, type: 3}
      propertyPath: m_LocalRotation.x
      value: 0
      objectReference: {fileID: 0}
    - target: {fileID: 7192333749248133278, guid: d2c85fe3b13f34546866a83897963fa9, type: 3}
      propertyPath: m_LocalRotation.y
      value: 1
      objectReference: {fileID: 0}
    - target: {fileID: 7192333749248133278, guid: d2c85fe3b13f34546866a83897963fa9, type: 3}
      propertyPath: m_LocalRotation.z
      value: 0
      objectReference: {fileID: 0}
    - target: {fileID: 7192333749248133278, guid: d2c85fe3b13f34546866a83897963fa9, type: 3}
      propertyPath: m_LocalEulerAnglesHint.x
      value: 0
      objectReference: {fileID: 0}
    - target: {fileID: 7192333749248133278, guid: d2c85fe3b13f34546866a83897963fa9, type: 3}
      propertyPath: m_LocalEulerAnglesHint.y
      value: 180
      objectReference: {fileID: 0}
    - target: {fileID: 7192333749248133278, guid: d2c85fe3b13f34546866a83897963fa9, type: 3}
      propertyPath: m_LocalEulerAnglesHint.z
      value: 0
      objectReference: {fileID: 0}
    - target: {fileID: 7218568665385758803, guid: d2c85fe3b13f34546866a83897963fa9, type: 3}
      propertyPath: m_Materials.Array.data[0]
      value: 
      objectReference: {fileID: 2100000, guid: 9bf82d1fe88301c478caf8b9f554602b, type: 2}
    - target: {fileID: 8634375760145477196, guid: d2c85fe3b13f34546866a83897963fa9, type: 3}
      propertyPath: m_Materials.Array.data[0]
      value: 
      objectReference: {fileID: 2100000, guid: 9bf82d1fe88301c478caf8b9f554602b, type: 2}
    - target: {fileID: 8688283190710530049, guid: d2c85fe3b13f34546866a83897963fa9, type: 3}
      propertyPath: m_LocalPosition.x
      value: 0.0000011920929
      objectReference: {fileID: 0}
    - target: {fileID: 8688283190710530049, guid: d2c85fe3b13f34546866a83897963fa9, type: 3}
      propertyPath: m_LocalPosition.y
      value: -0.00000023841858
      objectReference: {fileID: 0}
    - target: {fileID: 8688283190710530049, guid: d2c85fe3b13f34546866a83897963fa9, type: 3}
      propertyPath: m_LocalPosition.z
      value: -1.0000014
      objectReference: {fileID: 0}
    - target: {fileID: 8688283190710530049, guid: d2c85fe3b13f34546866a83897963fa9, type: 3}
      propertyPath: m_LocalRotation.w
      value: 0.7071068
      objectReference: {fileID: 0}
    - target: {fileID: 8688283190710530049, guid: d2c85fe3b13f34546866a83897963fa9, type: 3}
      propertyPath: m_LocalRotation.x
      value: 0.7071068
      objectReference: {fileID: 0}
    - target: {fileID: 8688283190710530049, guid: d2c85fe3b13f34546866a83897963fa9, type: 3}
      propertyPath: m_LocalRotation.y
      value: 0
      objectReference: {fileID: 0}
    - target: {fileID: 8688283190710530049, guid: d2c85fe3b13f34546866a83897963fa9, type: 3}
      propertyPath: m_LocalRotation.z
      value: 0
      objectReference: {fileID: 0}
    - target: {fileID: 8688283190710530049, guid: d2c85fe3b13f34546866a83897963fa9, type: 3}
      propertyPath: m_LocalEulerAnglesHint.y
      value: 0
      objectReference: {fileID: 0}
    m_RemovedComponents: []
  m_SourcePrefab: {fileID: 100100000, guid: d2c85fe3b13f34546866a83897963fa9, type: 3}
